Evaluation of Possible Sharknados - Appendix A — Draft: Data Documentation
…
Structure of the Data: KML file

Formating desicions in the data: Spatial KML Data, any desciption of an observation is in a spatial column that is hard to read

There is only one species recorded and that is tiger sharks

Data Validation / Quality Control: This is from an educational site so it will hopefully be of good quality

License: No specific license is provided

These datasets contain tornado information such as latitude, longtitude, magnitude, and category : https://www.ncdc.noaa.gov/stormevents/

“Storm Events Database | National Centers for Environmental Information” (n.d.)

# A tibble: 67,036 × 51
   BEGIN_YEARMONTH BEGIN_DAY BEGIN_TIME END_YEARMONTH END_DAY END_TIME
             <dbl>     <dbl>      <dbl>         <dbl>   <dbl>    <dbl>
 1          202405        23       1947        202405      23     1947
 2          202411        16        230        202411      18     1421
 3          202405        19       1839        202405      19     1902
 4          202405        23       2155        202405      23     2155
 5          202411        22        400        202411      22     1100
 6          202411         1          0        202411       1     1600
 7          202411         1          0        202411       1     1600
 8          202411        22        300        202411      22     1000
 9          202411        22        200        202411      22     1000
10          202411        17       1100        202411      18     2100
# ℹ 67,026 more rows
# ℹ 45 more variables: EPISODE_ID <dbl>, EVENT_ID <dbl>, STATE <chr>,
#   STATE_FIPS <dbl>, YEAR <dbl>, MONTH_NAME <chr>, EVENT_TYPE <chr>,
#   CZ_TYPE <chr>, CZ_FIPS <dbl>, CZ_NAME <chr>, WFO <chr>,
#   BEGIN_DATE_TIME <chr>, CZ_TIMEZONE <chr>, END_DATE_TIME <chr>,
#   INJURIES_DIRECT <dbl>, INJURIES_INDIRECT <dbl>, DEATHS_DIRECT <dbl>,
#   DEATHS_INDIRECT <dbl>, DAMAGE_PROPERTY <chr>, DAMAGE_CROPS <chr>, …
…
